{
  "provinsi": [
    {
      "name": "Aceh",
      "link": "https://covid19.acehprov.go.id"
    },
    {
      "name": "Bali",
      "link": "https://infocorona.baliprov.go.id"
    },
    {
      "name": "Banten",
      "link": "https://infocorona.bantenprov.go.id"
    },
    {
      "name": "Jakarta",
      "link": "https://corona.jakarta.go.id"
    },
    {
      "name": "Jambi",
      "link": "http://corona.jambiprov.go.id"
    },
    {
      "name": "Jawa Barat",
      "link": "https://pikobar.jabarprov.go.id"
    },
    {
      "name": "Jawa Tengah",
      "link": "https://corona.jatengprov.go.id"
    },
    {
      "name": "Jawa Timur",
      "link": "https://infocovid19.jatimprov.go.id"
    },
    {
      "name": "Kalimantan Barat",
      "link": "https://dinkes.kalbarprov.go.id/covid-19"
    },
    {
      "name": "Kepulauan Riau",
      "link": "http://corona.kepriprov.go.id"
    },
    {
      "name": "Lampung",
      "link": "http://geoportal.lampungprov.go.id/corona"
    },
    {
      "name": "NTB",
      "link": "https://corona.ntbprov.go.id"
    },
    {
      "name": "Riau",
      "link": "https://corona.riau.go.id"
    },
    {
      "name": "Sulawesi Selatan",
      "link": "https://covid19.sulselprov.go.id"
    },
    {
      "name": "Sumatera Barat",
      "link": "https://corona.sumbarprov.go.id"
    },
    {
      "name": "Sumatera Selatan",
      "link": "http://corona.sumselprov.go.id"
    },
    {
      "name": "Sumatera Utara",
      "link": "http://covid19.sumutprov.go.id"
    },
    {
      "name": "Yogyakarta",
      "link": "https://corona.jogjaprov.go.id"
    }
  ],
  "kabupaten_kota": [
    {
      "name": "Kabupaten Agam",
      "link": "http://covid19.agamkab.go.id"
    },
    {
      "name": "Kabupaten Bandung Barat",
      "link": "http://pik.bandungbaratkab.go.id"
    },
    {
      "name": "Kabupaten Bantul",
      "link": "https://corona.bantulkab.go.id"
    },
    {
      "name": "Kabupaten Banyumas",
      "link": "http://covid19.banyumaskab.go.id"
    },
    {
      "name": "Kabupaten Banyuwangi",
      "link": "https://corona.banyuwangikab.go.id/"
    },
    {
      "name": "Kabupaten Batang",
      "link": "https://corona.batangkab.go.id"
    },
    {
      "name": "Kabupaten Belitung Timur",
      "link": "https://corona.belitungtimurkab.go.id"
    },
    {
      "name": "Kabupaten Blora",
      "link": "http://corona.blorakab.go.id"
    },
    {
      "name": "Kabupaten Bojonegoro",
      "link": "http://lawancorona.bojonegorokab.go.id/"
    },
    {
      "name": "Kabupaten Bolaang Mongondow",
      "link": "https://covid19.bolmongkab.go.id"
    },
    {
      "name": "Kabupaten Bondowoso",
      "link": "https://dinkes.bondowosokab.go.id/covid-19-center"
    },
    {
      "name": "Kabupaten Boyolali",
      "link": "http://covid19.boyolali.go.id"
    },
    {
      "name": "Kabupaten Brebes",
      "link": "http://corona.brebeskab.go.id"
    },
    {
      "name": "Kabupaten Bungo",
      "link": "https://covid19.bungokab.go.id"
    },
    {
      "name": "Kabupaten Cianjur",
      "link": "http://covid19.cianjurkab.go.id"
    },
    {
      "name": "Kabupaten Cilacap",
      "link": "https://corona.cilacapkab.go.id"
    },
    {
      "name": "Kabupaten Cirebon",
      "link": "http://covid19.cirebonkab.go.id/"
    },
    {
      "name": "Kabupaten Deli Serdang",
      "link": "http://covid19.deliserdangkab.go.id"
    },
    {
      "name": "Kabupaten Demak",
      "link": "http://corona.demakkab.go.id"
    },
    {
      "name": "Kabupaten Dharmasraya",
      "link": "http://covid-19.dharmasrayakab.go.id"
    },
    {
      "name": "Kabupaten Gresik",
      "link": "https://satgascovid19.gresikkab.go.id"
    },
    {
      "name": "Kabupaten Grobogan",
      "link": "https://corona.grobogan.go.id"
    },
    {
      "name": "Kabupaten Jepara",
      "link": "http://corona.jepara.go.id"
    },
    {
      "name": "Kabupaten Karanganyar",
      "link": "http://covid19.karanganyarkab.go.id"
    },
    {
      "name": "Kabupaten Kebumen",
      "link": "https://corona.kebumenkab.go.id"
    },
    {
      "name": "Kabupaten Kediri",
      "link": "http://covid19.kedirikab.go.id/"
    },
    {
      "name": "Kabupaten Ketapang",
      "link": "https://covid19.ketapangkab.go.id"
    },
    {
      "name": "Kabupaten Klaten",
      "link": "http://pantaucorona.klatenkab.go.id"
    },
    {
      "name": "Kabupaten Kudus",
      "link": "http://corona.kuduskab.go.id"
    },
    {
      "name": "Kabupaten Langkat",
      "link": "http://coronainfo.langkatkab.go.id"
    },
    {
      "name": "Kabupaten Lamongan",
      "link": "https://lamongankab.go.id/dinkes/"
    },
    {
      "name": "Kabupaten Lebak",
      "link": "https://siagacovid19.lebakkab.go.id"
    },
    {
      "name": "Kabupaten Lima Puluh Kota",
      "link": "http://covid19.limapuluhkotakab.go.id"
    },
    {
      "name": "Kabupaten Magelang",
      "link": "https://infocorona.magelangkab.go.id"
    },
    {
      "name": "Kabupaten Malang",
      "link": "http://satgascovid19.malangkab.go.id"
    },
    {
      "name": "Kabupaten Musi Banyuasin",
      "link": "https://covid19.mubakab.go.id"
    },
    {
      "name": "Kabupaten Padang Pariaman",
      "link": "https://covid19.padangpariamankab.go.id"
    },
    {
      "name": "Kabupaten Pandeglang",
      "link": "http://infocorona.pandeglangkab.go.id"
    },
    {
      "name": "Kabupaten Pasaman Barat",
      "link": "https://corona.pasamanbaratkab.go.id"
    },
    {
      "name": "Kabupaten Pati",
      "link": "https://covid19.patikab.go.id"
    },
    {
      "name": "Kabupaten Pekalongan",
      "link": "http://corona.pekalongankab.go.id"
    },
    {
      "name": "Kabupaten Pesisir Selatan",
      "link": "https://covid19.pesisirselatankab.go.id"
    },
    {
      "name": "Kabupaten Probolinggo",
      "link": "https://siagacovid19.probolinggokab.go.id"
    },
    {
      "name": "Kabupaten Purworejo",
      "link": "http://covid19.purworejokab.go.id/"
    },
    {
      "name": "Kabupaten Rembang",
      "link": "https://covid19.rembangkab.go.id"
    },
    {
      "name": "Kabupaten Semarang",
      "link": "https://corona.semarangkab.go.id"
    },
    {
      "name": "Kabupaten Sidoarjo",
      "link": "https://covid19.sidoarjokab.go.id"
    },
    {
      "name": "Kabupaten Sijunjung",
      "link": "https://covid-19.sijunjung.go.id"
    },
    {
      "name": "Kabupaten Solok",
      "link": "https://covid19.solokkab.go.id"
    },
    {
      "name": "Kabupaten Solok Selatan",
      "link": "https://corona.solokselatankab.go.id"
    },
    {
      "name": "Kabupaten Sragen",
      "link": "http://corona.sragenkab.go.id"
    },
    {
      "name": "Kabupaten Sukoharjo",
      "link": "https://corona.sukoharjokab.go.id"
    },
    {
      "name": "Kabupaten Tanah Datar",
      "link": "http://covid-19.tanahdatar.go.id"
    },
    {
      "name": "Kabupaten Tangerang",
      "link": "http://covid19.tangerangkab.go.id"
    },
    {
      "name": "Kabupaten Tegal",
      "link": "https://covid19.tegalkab.go.id"
    },
    {
      "name": "Kabupaten Tuban",
      "link": "https://tubankab.go.id/page/informasi-tentang-virus-corona-covid-19"
    },
    {
      "name": "Kabupaten Wonosobo",
      "link": "https://corona.wonosobokab.go.id"
    },
    {
      "name": "Kota Bandung",
      "link": "https://covid19.bandung.go.id"
    },
    {
      "name": "Kota Batam",
      "link": "http://lawancorona.batam.go.id"
    },
    {
      "name": "Kota Bekasi",
      "link": "http://corona.bekasikota.go.id"
    },
    {
      "name": "Kota Binjai",
      "link": "http://binjaimelawancovid19.binjaikota.go.id"
    },
    {
      "name": "Kota Bogor",
      "link": "http://covid19.kotabogor.go.id"
    },
    {
      "name": "Kota Bukittinggi",
      "link": "https://covid19.bukittinggikota.go.id"
    },
    {
      "name": "Kota Depok",
      "link": "http://ccc-19.depok.go.id"
    },
    {
      "name": "Kota Magelang",
      "link": "https://covid19.magelangkota.go.id"
    },
    {
      "name": "Kota Makassar",
      "link": "https://infocorona.makassar.go.id"
    },
    {
      "name": "Kota Malang",
      "link": "https://coronadetektor.malangkota.go.id"
    },
    {
      "name": "Kota Padang",
      "link": "http://corona.padang.go.id"
    },
    {
      "name": "Kota Padang Panjang",
      "link": "http://corona.padangpanjang.go.id"
    },
    {
      "name": "Kota Palembang",
      "link": "https://hallo.palembang.go.id/Corona"
    },
    {
      "name": "Kota Payakumbuh",
      "link": "https://covid19.payakumbuhkota.go.id"
    },
    {
      "name": "Kota Pekalongan",
      "link": "https://corona.pekalongankota.go.id"
    },
    {
      "name": "Kota Probolinggo",
      "link": "https://portal.probolinggokota.go.id/index.php/tanggap-corona"
    },
    {
      "name": "Kota Salatiga",
      "link": "https://corona.salatiga.go.id"
    },
    {
      "name": "Kota Semarang",
      "link": "https://siagacorona.semarangkota.go.id"
    },
    {
      "name": "Kota Serang",
      "link": "https://infocorona.serangkota.go.id"
    },
    {
      "name": "Kota Solok",
      "link": "http://corona.solokkota.go.id"
    },
    {
      "name": "Kota Surabaya",
      "link": "https://lawancovid-19.surabaya.go.id"
    },
    {
      "name": "Kota Tangerang",
      "link": "https://maps.tangerangkota.go.id/corona"
    },
    {
      "name": "Kota Tebing Tinggi",
      "link": "http://covid19.tebingtinggikota.go.id"
    },
    {
      "name": "Kota Tegal",
      "link": "https://corona.tegalkota.go.id"
    }
  ]
}
